Reproducible Research: Peer Assessment 1
…
## 'data.frame':    17568 obs. of  3 variables:
##  $ steps   : int  NA NA NA NA NA NA NA NA NA NA ...
##  $ date    : Date, format: "2012-10-01" "2012-10-01" ...
##  $ interval: int  0 5 10 15 20 25 30 35 40 45 ...

What is mean total number of steps taken per day?

1. Calculate the total number of steps taken per day (ignore the missing values)

require(dplyr)
total_day <- activity %>% group_by(date) %>%summarise(total_steps=sum(steps,na.rm=TRUE),na=mean(is.na(steps))) %>% print

## # A tibble: 61 x 3
##    date       total_steps    na
##    <date>           <int> <dbl>
##  1 2012-10-01           0     1
##  2 2012-10-02         126     0
##  3 2012-10-03       11352     0
##  4 2012-10-04       12116     0
##  5 2012-10-05       13294     0
##  6 2012-10-06       15420     0
##  7 2012-10-07       11015     0
##  8 2012-10-08           0     1
##  9 2012-10-09       12811     0
## 10 2012-10-10        9900     0
## #  with 51 more rows
…
